<?xml version="1.0" encoding="UTF-8"?>
<svg xmlns="http://www.w3.org/2000/svg" xmlns:xlink="http://www.w3.org/1999/xlink" width="32pt" height="32pt" viewBox="0 0 32 32" version="1.1">
<g id="surface1">
<path style=" stroke:none;fill-rule:nonzero;fill:rgb(100%,100%,100%);fill-opacity:1;" d="M 25.6875 9.84375 L 20.679688 8.890625 C 17.585938 8.300781 14.414062 8.300781 11.320312 8.890625 L 6.3125 9.84375 C 5.839844 9.933594 5.5 10.347656 5.5 10.828125 L 5.5 21.171875 C 5.5 21.652344 5.839844 22.066406 6.3125 22.15625 L 11.320312 23.109375 C 14.414062 23.699219 17.585938 23.699219 20.679688 23.109375 L 25.6875 22.15625 C 26.160156 22.066406 26.5 21.652344 26.5 21.171875 L 26.5 10.828125 C 26.5 10.347656 26.160156 9.933594 25.6875 9.84375 Z M 25.6875 9.84375 "/>
<path style=" stroke:none;fill-rule:nonzero;fill:rgb(100%,100%,100%);fill-opacity:1;" d="M 25.6875 9.84375 L 23.5 9.429688 L 23.5 9.5 C 23.5 15.574219 18.574219 20.5 12.5 20.5 L 5.5 20.5 L 5.5 21.171875 C 5.5 21.652344 5.839844 22.066406 6.3125 22.15625 L 11.320312 23.109375 C 14.414062 23.699219 17.585938 23.699219 20.679688 23.109375 L 25.6875 22.15625 C 26.160156 22.066406 26.5 21.652344 26.5 21.171875 L 26.5 10.828125 C 26.5 10.347656 26.160156 9.933594 25.6875 9.84375 Z M 25.6875 9.84375 "/>
<path style=" stroke:none;fill-rule:nonzero;fill:rgb(0%,0%,0%);fill-opacity:1;" d="M 27 11.03125 L 27 10.824219 C 26.996094 10.105469 26.484375 9.492188 25.78125 9.355469 L 20.769531 8.398438 C 17.617188 7.796875 14.382812 7.796875 11.230469 8.398438 L 6.21875 9.355469 C 5.515625 9.492188 5.003906 10.105469 5 10.824219 L 5 11.03125 C 2.726562 11.289062 1.003906 13.210938 1 15.5 L 1 16.5 C 1.003906 18.789062 2.726562 20.710938 5 20.96875 L 5 21.175781 C 5.003906 21.894531 5.515625 22.507812 6.21875 22.644531 L 11.230469 23.601562 C 12.800781 23.898438 14.398438 24.050781 16 24.050781 C 17.601562 24.050781 19.199219 23.898438 20.769531 23.601562 L 25.78125 22.644531 C 26.484375 22.507812 26.996094 21.894531 27 21.175781 L 27 20.96875 C 29.273438 20.710938 30.996094 18.789062 31 16.5 L 31 15.5 C 30.996094 13.210938 29.273438 11.289062 27 11.03125 Z M 5 19.964844 C 3.277344 19.714844 2.003906 18.238281 2 16.5 L 2 15.5 C 2.003906 13.761719 3.277344 12.285156 5 12.035156 Z M 26 21.175781 C 26 21.414062 25.828125 21.621094 25.59375 21.664062 L 20.585938 22.621094 C 17.554688 23.195312 14.445312 23.195312 11.414062 22.621094 L 6.40625 21.664062 C 6.171875 21.621094 6 21.414062 6 21.175781 L 6 10.824219 C 6 10.585938 6.171875 10.378906 6.40625 10.335938 L 11.414062 9.378906 C 14.445312 8.808594 17.554688 8.808594 20.585938 9.378906 L 25.59375 10.335938 C 25.828125 10.378906 26 10.585938 26 10.824219 Z M 30 16.5 C 29.996094 18.238281 28.722656 19.714844 27 19.964844 L 27 12.035156 C 28.722656 12.285156 29.996094 13.761719 30 15.5 Z M 30 16.5 "/>
<path style=" stroke:none;fill-rule:nonzero;fill:rgb(0%,0%,0%);fill-opacity:1;" d="M 23.5 15.5 L 8.5 15.5 C 8.222656 15.5 8 15.722656 8 16 C 8 16.277344 8.222656 16.5 8.5 16.5 L 23.5 16.5 C 23.777344 16.5 24 16.277344 24 16 C 24 15.722656 23.777344 15.5 23.5 15.5 Z M 23.5 15.5 "/>
<path style=" stroke:none;fill-rule:nonzero;fill:rgb(0%,0%,0%);fill-opacity:1;" d="M 23.5 12.5 L 8.5 12.5 C 8.222656 12.5 8 12.722656 8 13 C 8 13.277344 8.222656 13.5 8.5 13.5 L 23.5 13.5 C 23.777344 13.5 24 13.277344 24 13 C 24 12.722656 23.777344 12.5 23.5 12.5 Z M 23.5 12.5 "/>
<path style=" stroke:none;fill-rule:nonzero;fill:rgb(0%,0%,0%);fill-opacity:1;" d="M 23.5 18.5 L 8.5 18.5 C 8.222656 18.5 8 18.722656 8 19 C 8 19.277344 8.222656 19.5 8.5 19.5 L 23.5 19.5 C 23.777344 19.5 24 19.277344 24 19 C 24 18.722656 23.777344 18.5 23.5 18.5 Z M 23.5 18.5 "/>
</g>
</svg>
